"unsupported property value for font",6835
"unsupported value",102
"non-zero length is not allowed without unit identifier",94
"unsupported pseudo-class",72
"integer value must be positive",59
"invalid declaration",36
"unsupported pseudo-element",21
"length value must not be negative",21
"invalid qualified rule",21
"invalid rule @supports",12
"unsupported selector within :not()",4
"unsupported property value for animation",4
"Unexpected end tag : scr",4
"End tag : expected >",4
"warning: unsupported pseudo-class",3
"warning: unsupported value",1
"warning: invalid qualified rule",1
"unsupported property zoom",1
"unsupported property word-break",1
"unsupported property value for font-weight",1
"unsupported property unicode-bidi",1
"unsupported property text-rendering",1
"unsupported property table-layout",1
"unsupported property speak",1
"unsupported property overflow-y",1
"unsupported property object-fit",1
"unsupported property list-style-type",1
"unsupported property list-style",1
"unsupported property letter-spacing",1
"unsupported property hyphens",1
"unsupported property grid-template-rows",1
"unsupported property grid-template-columns",1
"unsupported property grid-template-areas",1
"unsupported property grid-area",1
"unsupported property font-variant",1
"unsupported property float",1
"unsupported property fill",1
"unsupported property direction",1
"unsupported property cursor",1
"unsupported property clip-path",1
"unsupported property clear",1
"unsupported property caption-side",1
"unsupported property box-sizing",1
"unsupported property border-spacing",1
"unsupported property border-collapse",1
"unsupported property background-attachment",1
"unsupported property backface-visibility",1
"unrecoverable syntax error",1
"invalid transform function",1
"invalid rule @viewport",1
"invalid rule @charset",1
"font-style value declared twice in font.",1
